%YAML 1.1
%TAG !u! tag:unity3d.com,2011:
--- !u!1001 &3490285898514610584
PrefabInstance:
  m_ObjectHideFlags: 0
  serializedVersion: 2
  m_Modification:
    m_TransformParent: {fileID: 0}
    m_Modifications:
    - target: {fileID: 5029624114007765175, guid: 20be07bf0e41146b58166de22ebdbfbd, type: 3}
      propertyPath: m_Name
      value: Menu Button
      objectReference: {fileID: 0}
    - target: {fileID: 5577062394162457969, guid: 20be07bf0e41146b58166de22ebdbfbd, type: 3}
      propertyPath: m_OnClick.m_PersistentCalls.m_Calls.Array.size
      value: 0
      objectReference: {fileID: 0}
    - target: {fileID: 5577062394162457969, guid: 20be07bf0e41146b58166de22ebdbfbd, type: 3}
      propertyPath: m_OnClick.m_PersistentCalls.m_Calls.Array.data[0].m_Mode
      value: 1
      objectReference: {fileID: 0}
    - target: {fileID: 5577062394162457969, guid: 20be07bf0e41146b58166de22ebdbfbd, type: 3}
      propertyPath: m_OnClick.m_PersistentCalls.m_Calls.Array.data[0].m_Target
      value: 
      objectReference: {fileID: 0}
    - target: {fileID: 5577062394162457969, guid: 20be07bf0e41146b58166de22ebdbfbd, type: 3}
      propertyPath: m_OnClick.m_PersistentCalls.m_Calls.Array.data[0].m_CallState
      value: 2
      objectReference: {fileID: 0}
    - target: {fileID: 5577062394162457969, guid: 20be07bf0e41146b58166de22ebdbfbd, type: 3}
      propertyPath: m_OnClick.m_PersistentCalls.m_Calls.Array.data[0].m_MethodName
      value: 
      objectReference: {fileID: 0}
    - target: {fileID: 5577062394162457969, guid: 20be07bf0e41146b58166de22ebdbfbd, type: 3}
      propertyPath: m_OnClick.m_PersistentCalls.m_Calls.Array.data[0].m_TargetAssemblyTypeName
      value: 
      objectReference: {fileID: 0}
    - target: {fileID: 5577062394162457969, guid: 20be07bf0e41146b58166de22ebdbfbd, type: 3}
      propertyPath: m_OnClick.m_PersistentCalls.m_Calls.Array.data[0].m_Arguments.m_ObjectArgumentAssemblyTypeName
      value: 
      objectReference: {fileID: 0}
    - target: {fileID: 7908337255006660086, guid: 20be07bf0e41146b58166de22ebdbfbd, type: 3}
      propertyPath: m_Pivot.x
      value: 0.5
      objectReference: {fileID: 0}
    - target: {fileID: 7908337255006660086, guid: 20be07bf0e41146b58166de22ebdbfbd, type: 3}
      propertyPath: m_Pivot.y
      value: 0.5
      objectReference: {fileID: 0}
    - target: {fileID: 7908337255006660086, guid: 20be07bf0e41146b58166de22ebdbfbd, type: 3}
      propertyPath: m_RootOrder
      value: 0
      objectReference: {fileID: 0}
    - target: {fileID: 7908337255006660086, guid: 20be07bf0e41146b58166de22ebdbfbd, type: 3}
      propertyPath: m_AnchorMax.x
      value: 0
      objectReference: {fileID: 0}
    - target: {fileID: 7908337255006660086, guid: 20be07bf0e41146b58166de22ebdbfbd, type: 3}
      propertyPath: m_AnchorMax.y
      value: 0
      objectReference: {fileID: 0}
    - target: {fileID: 7908337255006660086, guid: 20be07bf0e41146b58166de22ebdbfbd, type: 3}
      propertyPath: m_AnchorMin.x
      value: 0
      objectReference: {fileID: 0}
    - target: {fileID: 7908337255006660086, guid: 20be07bf0e41146b58166de22ebdbfbd, type: 3}
      propertyPath: m_AnchorMin.y
      value: 0
      objectReference: {fileID: 0}
    - target: {fileID: 7908337255006660086, guid: 20be07bf0e41146b58166de22ebdbfbd, type: 3}
      propertyPath: m_SizeDelta.x
      value: 326.5499
      objectReference: {fileID: 0}
    - target: {fileID: 7908337255006660086, guid: 20be07bf0e41146b58166de22ebdbfbd, type: 3}
      propertyPath: m_SizeDelta.y
      value: 104.7775
      objectReference: {fileID: 0}
    - target: {fileID: 7908337255006660086, guid: 20be07bf0e41146b58166de22ebdbfbd, type: 3}
      propertyPath: m_LocalPosition.x
      value: 0
      objectReference: {fileID: 0}
    - target: {fileID: 7908337255006660086, guid: 20be07bf0e41146b58166de22ebdbfbd, type: 3}
      propertyPath: m_LocalPosition.y
      value: 0
      objectReference: {fileID: 0}
    - target: {fileID: 7908337255006660086, guid: 20be07bf0e41146b58166de22ebdbfbd, type: 3}
      propertyPath: m_LocalPosition.z
      value: 0
      objectReference: {fileID: 0}
    - target: {fileID: 7908337255006660086, guid: 20be07bf0e41146b58166de22ebdbfbd, type: 3}
      propertyPath: m_LocalRotation.w
      value: 1
      objectReference: {fileID: 0}
    - target: {fileID: 7908337255006660086, guid: 20be07bf0e41146b58166de22ebdbfbd, type: 3}
      propertyPath: m_LocalRotation.x
      value: 0
      objectReference: {fileID: 0}
    - target: {fileID: 7908337255006660086, guid: 20be07bf0e41146b58166de22ebdbfbd, type: 3}
      propertyPath: m_LocalRotation.y
      value: 0
      objectReference: {fileID: 0}
    - target: {fileID: 7908337255006660086, guid: 20be07bf0e41146b58166de22ebdbfbd, type: 3}
      propertyPath: m_LocalRotation.z
      value: 0
      objectReference: {fileID: 0}
    - target: {fileID: 7908337255006660086, guid: 20be07bf0e41146b58166de22ebdbfbd, type: 3}
      propertyPath: m_AnchoredPosition.x
      value: 0
      objectReference: {fileID: 0}
    - target: {fileID: 7908337255006660086, guid: 20be07bf0e41146b58166de22ebdbfbd, type: 3}
      propertyPath: m_AnchoredPosition.y
      value: 0
      objectReference: {fileID: 0}
    - target: {fileID: 7908337255006660086, guid: 20be07bf0e41146b58166de22ebdbfbd, type: 3}
      propertyPath: m_LocalEulerAnglesHint.x
      value: 0
      objectReference: {fileID: 0}
    - target: {fileID: 7908337255006660086, guid: 20be07bf0e41146b58166de22ebdbfbd, type: 3}
      propertyPath: m_LocalEulerAnglesHint.y
      value: 0
      objectReference: {fileID: 0}
    - target: {fileID: 7908337255006660086, guid: 20be07bf0e41146b58166de22ebdbfbd, type: 3}
      propertyPath: m_LocalEulerAnglesHint.z
      value: 0
      objectReference: {fileID: 0}
    m_RemovedComponents:
    - {fileID: 8712747264111955319, guid: 20be07bf0e41146b58166de22ebdbfbd, type: 3}
  m_SourcePrefab: {fileID: 100100000, guid: 20be07bf0e41146b58166de22ebdbfbd, type: 3}
